Statistical inference with the GSS data
…
weapon_df %>% group_by(year,sex) %>% summarise(total=n())

## Source: local data frame [48 x 3]
## Groups: year [?]
## 
##     year    sex total
##    <int> <fctr> <int>
## 1   1973   Male   648
## 2   1973 Female   712
## 3   1974   Male   633
## 4   1974 Female   698
## 5   1976   Male   619
## 6   1976 Female   743
## 7   1977   Male   637
## 8   1977 Female   738
## 9   1980   Male   600
## 10  1980 Female   732
## # ... with 38 more rows
…
