Exploring the BRFSS data
…
OK, its looks better.

We can now first visualize the relationship between sleep time and smoking :

group2<-df_q1 %>% group_by(sleptim1,smokday2) %>% summarise(total=n()) 
group2

## Source: local data frame [33 x 3]
## Groups: sleptim1 [?]
## 
##    sleptim1   smokday2 total
##       <int>     <fctr> <int>
## 1         1  Every day    13
## 2         1  Some days     5
## 3         1 Not at all    12
## 4         2  Every day    83
## 5         2  Some days    31
## 6         2 Not at all    51
## 7         3  Every day   299
## 8         3  Some days   100
## 9         3 Not at all   247
## 10        4  Every day  1255
## # ... with 23 more rows
…
